HTTP/1.1 200 OK
Date: Sat, 17 Feb 2024 23:00:02 GMT
Server: Apache/2.4.37 (rocky) OpenSSL/1.1.1k
Last-Modified: Sat, 17 Feb 2024 03:10:38 GMT
ETag: "b27029-6118b34711aab"
Accept-Ranges: bytes
Content-Length: 11694121
Content-Type: application/zip

